<svg xmlns="http://www.w3.org/2000/svg" width="48" height="35.23" viewBox="0 0 48 35.23">
    <defs>
        <style>
            .cls-1,.cls-2{fill:#ffffff}.cls-1{font-size:10px;font-family:Arial, sans-serif;font-weight:700}
        </style>
    </defs>
    <g id="Grupo_1977" data-name="Grupo 1977" transform="translate(-325 -108.77)">
        <text id="INSCRITO" class="cls-1" transform="translate(349 142)">
            <tspan x="-23.545" y="0">INSCRITO</tspan>
        </text>
        <g id="Outline_1_" transform="translate(340 108.77)">
            <g id="Grupo_1570" data-name="Grupo 1570">
                <path id="Caminho_760" d="M13.911 4.637H0v2.319h13.911zm0-4.637H0v2.319h13.911zM0 11.593h9.274V9.274H0zm22.606-5.217l1.739 1.739-8.115 8.115-5.217-5.217 1.739-1.739 3.478 3.478z" class="cls-2" data-name="Caminho 760"/>
            </g>
        </g>
    </g>
</svg>
