<svg xmlns="http://www.w3.org/2000/svg" width="72" height="36.339" viewBox="0 0 62 36.339">
    <defs>
        <style>
            .cls-1,.cls-2{fill:#e9295d}.cls-1{font-size:10px;font-family:Arial, sans-serif;font-weight:700}
        </style>
    </defs>
    <g id="Grupo_1974" data-name="Grupo 1974" transform="translate(-612 -107.661)">
        <text id="REPROVADO" class="cls-1" transform="translate(643 142)">
            <tspan x="-30.977" y="0">REPROVADO</tspan>
        </text>
        <g id="Grupo_1568" data-name="Grupo 1568" transform="translate(3.839)">
            <path id="Retângulo_293" d="M0 0h4v21H0z" class="cls-2" data-name="Retângulo 293" transform="rotate(45 192.547 832.426)"/>
            <path id="Retângulo_294" d="M0 0h4v21H0z" class="cls-2" data-name="Retângulo 294" transform="rotate(-45 448.454 -705.427)"/>
        </g>
    </g>
</svg>
