<svg xmlns="http://www.w3.org/2000/svg" width="135" height="22.895" viewBox="0 0 135 22.895">
    <defs>
        <style>
            .cls-1,.cls-3{fill:#1dcf76}.cls-2{clip-path:url(#clip-path)}.cls-3{font-size:10px;font-family:Arial-BoldMT,Arial;font-weight:700}
        </style>
        <clipPath id="clip-path">
            <path id="Retângulo_410" d="M0 0h24.323v22.895H0z" class="cls-1" data-name="Retângulo 410"/>
        </clipPath>
    </defs>
    <g id="Grupo_2060" data-name="Grupo 2060" transform="translate(-23 -100.451)">
        <g id="Grupo_2043" data-name="Grupo 2043" transform="translate(23 100.451)">
            <g id="Grupo_2042" data-name="Grupo 2042">
                <g id="Grupo_2041" class="cls-2" data-name="Grupo 2041">
                    <path id="Caminho_1204" d="M20.929 499.859h12.922a.713.713 0 0 0 .713-.713v-2.138h.713a.713.713 0 0 0 .713-.713v-2.619a4.941 4.941 0 0 0 .849-.512l.993.993-.189.189a.712.712 0 0 0 0 1.008l4.922 4.923L45 497.841l-4.922-4.922a.713.713 0 0 0-1.008 0l-.231.231-.993-.993a4.989 4.989 0 0 0-1.857-7.494v-2.619a.714.714 0 0 0-.209-.5l-4.28-4.28a.718.718 0 0 0-.5-.209h-7.221a.712.712 0 0 0-.713.712v.713h-2.137a.713.713 0 0 0-.713.713v19.953a.713.713 0 0 0 .713.713zm15.442-8.17a3.563 3.563 0 1 1 0-5.039 3.567 3.567 0 0 1 0 5.039zm-4.657-12.2l1.842 1.843h-1.843zm-7.221-1.008h5.8v3.563a.712.712 0 0 0 .712.713h3.563v1.478a4.987 4.987 0 1 0 0 9.87v1.478H24.492zm-2.851 1.425h1.425V496.3a.713.713 0 0 0 .713.713h9.359v1.425h-11.5zm0 0" class="cls-1" data-name="Caminho 1204" transform="translate(-20.264 -477.009)"/>
                </g>
            </g>
        </g>
        <g id="Grupo_2046" data-name="Grupo 2046" transform="translate(0 -84)">
            <text id="ANÁLISE_CONCLUÍDA" class="cls-3" data-name="ANÁLISE CONCLUÍDA" transform="translate(51 199)">
                <tspan x="0" y="0">ANÁLISE CONCLUÍDA</tspan>
            </text>
        </g>
    </g>
</svg>
