<?xml version="1.0" encoding="utf-8"?>
<!-- Generator: Adobe Illustrator 19.0.0, SVG Export Plug-In . SVG Version: 6.00 Build 0)  -->
<svg version="1.1" id="Layer_1" xmlns="http://www.w3.org/2000/svg" xmlns:xlink="http://www.w3.org/1999/xlink" x="0px" y="0px"
	 viewBox="0 0 22 22" style="enable-background:new 0 0 22 22;" xml:space="preserve">
<style type="text/css">
	.st0{fill:#FFFFFF;}
</style>
<path id="Caminho_754" class="st0" d="M18.7,2.2h-4.6c-0.6-1.7-2.4-2.6-4.2-2c-1,0.3-1.7,1.1-2,2H2.8C2.4,2.3,2,2.5,1.7,2.8
	C1.5,3,1.4,3.3,1.3,3.5C1.1,3.8,1.1,4.1,1,4.4v15.5c0,0.3,0.1,0.6,0.2,0.9c0.1,0.2,0.3,0.5,0.4,0.7C2,21.8,2.4,22,2.8,22h15.9
	c1.2,0,2.2-1,2.2-2.2V4.4C20.9,3.2,20,2.2,18.7,2.2z M11,2c0.5,0,0.9,0.4,0.9,0.9c0,0,0,0,0,0c0,0.4-0.4,0.8-0.8,0.8
	c0,0-0.1,0-0.1,0c-0.5,0-0.8-0.4-0.8-0.9C10.2,2.3,10.5,2,11,2C11,2,11,2,11,2z M18.7,19.9H3.3V4.4h15.5V19.9z"/>
<path id="Caminho_755" class="st0" d="M18.3,8l-1.7-1.7l-8,8l-3.1-3.1l-1.7,1.7l4.8,4.8L18.3,8z"/>
</svg>
