<svg xmlns="http://www.w3.org/2000/svg" width="70" height="52.352" viewBox="0 0 64 52.352">
    <defs>
        <style>
            .cls-1,.cls-2{fill:#e9295d}.cls-1{font-size:10px;font-family:Arial, sans-serif;font-weight:700}
        </style>
    </defs>
    <g id="Grupo_1973" data-name="Grupo 1973" transform="translate(-345 -88.648)">
        <text id="AUSENTE_NA_AVALIAÇÃO" class="cls-1" data-name="AUSENTE NA AVALIAÇÃO" transform="translate(377 126)">
            <tspan x="-31.655" y="0">AUSENTE NA</tspan><tspan x="-28.188" y="12">AVALIAÇÃO</tspan>
        </text>
        <g id="Outline_1_" transform="translate(367 88.648)">
            <g id="Grupo_1573" data-name="Grupo 1573">
                <path id="Caminho_761" d="M10.553 2.235a5.534 5.534 0 0 1 5.588 5.588 9.975 9.975 0 0 1-1.118 4.023l1.677 1.677a12.75 12.75 0 0 0 1.676-5.7A7.775 7.775 0 0 0 10.553 0 7.437 7.437 0 0 0 5.3 2.123l1.565 1.565a5.445 5.445 0 0 1 3.688-1.453z" class="cls-2" data-name="Caminho 761" transform="translate(.623)"/>
                <path id="Caminho_762" d="M10.188 4.5a2.74 2.74 0 0 0-1.788.671l3.912 3.912a3.168 3.168 0 0 0 .671-1.788A2.767 2.767 0 0 0 10.188 4.5z" class="cls-2" data-name="Caminho 762" transform="translate(.988 .529)"/>
                <path id="Caminho_763" d="M1.565.9L0 2.465l3.576 3.576a7.6 7.6 0 0 0-.224 1.676c0 5.923 7.823 14.529 7.823 14.529a52.444 52.444 0 0 0 3.8-4.917l3.688 3.8 1.565-1.565zm9.611 17.881c-2.235-2.905-5.365-7.488-5.588-10.729l7.712 7.712a35.253 35.253 0 0 1-2.124 3.017z" class="cls-2" data-name="Caminho 763" transform="translate(0 .106)"/>
            </g>
        </g>
    </g>
</svg>
