<svg xmlns="http://www.w3.org/2000/svg" width="37.719" height="32.679" viewBox="0 0 37.719 32.679">
    <defs>
        <style>
            .cls-1{fill:#959595}
        </style>
    </defs>
    <g id="Grupo_72" data-name="Grupo 72">
        <path id="Caminho_203" d="M414.73 123.093V104.25a.55.55 0 0 0 .069-.163 4.92 4.92 0 0 1 4.591-4.187c1.47-.069 2.94-.034 4.419-.034a.422.422 0 0 0 .481-.327c.249-.731.533-1.444.808-2.166a3.893 3.893 0 0 1 3.662-2.536h9.64a3.9 3.9 0 0 1 3.671 2.527c.275.7.55 1.418.791 2.132a.47.47 0 0 0 .559.37c1.255-.017 2.5-.009 3.757 0a6.249 6.249 0 0 1 1.135.086 4.975 4.975 0 0 1 4.118 4.823c.026 2.184.009 4.367.009 6.551v11.038a4.714 4.714 0 0 1-.421 2.149 4.934 4.934 0 0 1-4.7 3q-13.72.013-27.449 0a1.944 1.944 0 0 1-.224-.009 4.81 4.81 0 0 1-4.152-2.433 9.508 9.508 0 0 1-.764-1.978zm18.844-.619a8.794 8.794 0 1 0-8.794-8.794 8.778 8.778 0 0 0 8.793 8.794z" class="cls-1" data-name="Caminho 203" transform="translate(-414.73 -94.837)"/>
        <path id="Caminho_204" d="M433.522 108.024a5.657 5.657 0 1 1-5.6 5.725 5.666 5.666 0 0 1 5.6-5.725z" class="cls-1" data-name="Caminho 204" transform="translate(-414.73 -94.837)"/>
    </g>
</svg>
