<svg xmlns="http://www.w3.org/2000/svg" width="74" height="54.648" viewBox="0 0 74 54.648">
    <defs>
        <style>
            .cls-1,.cls-2{fill:#d4a20e}.cls-2{font-size:10px;font-family:Arial-BoldMT,Arial;font-weight:700}
        </style>
    </defs>
    <g id="Grupo_2061" data-name="Grupo 2061" transform="translate(-267 -32.352)">
        <g id="Grupo_2049" data-name="Grupo 2049" transform="translate(289.352 32.352)">
            <path id="Caminho_1205" d="M28.1 11.58a9.065 9.065 0 0 0-7.718 13.828l-7.03 7.032 2.96 2.96 7.032-7.032A9.068 9.068 0 1 0 28.1 11.58zM15.325 32.44l5.97-5.97.956 1.017-5.939 5.94zM28.1 28.323a7.674 7.674 0 1 1 7.674-7.674 7.683 7.683 0 0 1-7.674 7.674zm0 0" class="cls-1" data-name="Caminho 1205" transform="translate(-13.352 -11.58)"/>
            <path id="Caminho_1206" d="M84.755 33.033a6.279 6.279 0 1 0 6.279 6.279 6.286 6.286 0 0 0-6.279-6.279zm0 11.162a4.884 4.884 0 1 1 4.884-4.884 4.889 4.889 0 0 1-4.884 4.889zm0 0" class="cls-1" data-name="Caminho 1206" transform="translate(-70.005 -30.242)"/>
            <path id="Caminho_1207" d="M122.778 54.487h-1.4v4.186h4.186v-1.4h-2.791zm0 0" class="cls-1" data-name="Caminho 1207" transform="translate(-107.331 -48.906)"/>
        </g>
        <g id="Grupo_2050" data-name="Grupo 2050" transform="translate(214 -127)">
            <text id="AGUARDANDO_ANÁLISE" class="cls-2" data-name="AGUARDANDO ANÁLISE" transform="translate(90 200)">
                <tspan x="-36.665" y="0">AGUARDANDO</tspan><tspan x="-21.946" y="12">ANÁLISE</tspan>
            </text>
        </g>
    </g>
</svg>
